Suite/Test/Step Name,Browser,Description,Start time,End time,Duration,Status
TestDeclarationSinistre,Chrome 68.0.3440.106,,2018-08-28 21:54:33,2018-08-28 21:54:43,"10,246s",FAILED
,,,,,,
Test Cases/TC_Sinistre/Declaration,Chrome 68.0.3440.106,,2018-08-28 21:54:34,2018-08-28 21:54:43,"8,932s",FAILED
openBrowser,Chrome 68.0.3440.106,,2018-08-28 21:54:34,2018-08-28 21:54:39,"4,313s",PASSED
maximizeWindow,Chrome 68.0.3440.106,,2018-08-28 21:54:39,2018-08-28 21:54:40,"1,247s",PASSED
navigateToUrl,Chrome 68.0.3440.106,,2018-08-28 21:54:40,2018-08-28 21:54:42,"2,005s",PASSED
waitForPageLoad,Chrome 68.0.3440.106,,2018-08-28 21:54:42,2018-08-28 21:54:42,"0,082s",PASSED
setText,Chrome 68.0.3440.106,,2018-08-28 21:54:42,2018-08-28 21:54:42,"0,318s",FAILED
Start tear down : TDIfFailed,Chrome 68.0.3440.106,,2018-08-28 21:54:42,2018-08-28 21:54:43,"0,289s",PASSED
