Suite/Test/Step Name,Browser,Description,Start time,End time,Duration,Status
0.0-TS-Authentification,Chrome 68.0.3440.106,,2018-09-03 13:47:47,2018-09-03 13:48:10,"23,035s",PASSED
,,,,,,
Test Cases/0.TC-Authentification/0.0- Authentification,Chrome 68.0.3440.106,,2018-09-03 13:47:48,2018-09-03 13:48:10,"22,243s",PASSED
Statement - DD = com.kms.katalon.core.testdata.TestDataFactory.findTestData(0.DF-Authentification/0.1-TD Authentification),Chrome 68.0.3440.106,,2018-09-03 13:47:49,2018-09-03 13:47:50,"1,246s",PASSED
"Statement - println(""[Row Count] : "" + DD.getRowNumbers())",Chrome 68.0.3440.106,,2018-09-03 13:47:50,2018-09-03 13:47:50,"0,029s",PASSED
"Statement - For ([i = 1, i <= 1, (i++)])",Chrome 68.0.3440.106,,2018-09-03 13:47:50,2018-09-03 13:48:09,"18,742s",PASSED
Start tear down : TDIfPassed,Chrome 68.0.3440.106,,2018-09-03 13:48:09,2018-09-03 13:48:10,"1,525s",PASSED
