Suite/Test/Step Name,Browser,Description,Start time,End time,Duration,Status
0.1-TS-Authentification,Chrome 68.0.3440.106,,2018-08-31 15:07:36,2018-08-31 15:07:52,"16,040s",PASSED
,,,,,,
Test Cases/0.TC-Authentification/0.0- Authentification,Chrome 68.0.3440.106,,2018-08-31 15:07:36,2018-08-31 15:07:52,"15,412s",PASSED
openBrowser,Chrome 68.0.3440.106,,2018-08-31 15:07:37,2018-08-31 15:07:41,"4,246s",PASSED
maximizeWindow,Chrome 68.0.3440.106,,2018-08-31 15:07:41,2018-08-31 15:07:42,"1,197s",PASSED
navigateToUrl,Chrome 68.0.3440.106,,2018-08-31 15:07:42,2018-08-31 15:07:43,"0,892s",PASSED
setText,Chrome 68.0.3440.106,,2018-08-31 15:07:43,2018-08-31 15:07:45,"1,599s",PASSED
setText,Chrome 68.0.3440.106,,2018-08-31 15:07:45,2018-08-31 15:07:45,"0,233s",PASSED
click,Chrome 68.0.3440.106,,2018-08-31 15:07:45,2018-08-31 15:07:45,"0,130s",PASSED
waitForPageLoad,Chrome 68.0.3440.106,,2018-08-31 15:07:45,2018-08-31 15:07:46,"0,523s",PASSED
delay,Chrome 68.0.3440.106,,2018-08-31 15:07:46,2018-08-31 15:07:51,"5,047s",PASSED
closeBrowser,Chrome 68.0.3440.106,,2018-08-31 15:07:51,2018-08-31 15:07:52,"0,882s",PASSED
Start tear down : TDIfPassed,Chrome 68.0.3440.106,,2018-08-31 15:07:52,2018-08-31 15:07:52,"0,079s",PASSED
