Suite/Test/Step Name,Browser,Description,Start time,End time,Duration,Status
2.1-TS-Decaissement,Chrome 68.0.3440.106,,2018-09-04 00:25:03,2018-09-04 00:25:25,"21,974s",FAILED
,,,,,,
Test Cases/2.TC-Decaissement/2.1-TC-Decaissement,Chrome 68.0.3440.106,,2018-09-04 00:25:04,2018-09-04 00:25:25,"20,342s",FAILED
callTestCase,Chrome 68.0.3440.106,,2018-09-04 00:25:05,2018-09-04 00:25:16,"10,517s",PASSED
navigateToUrl,Chrome 68.0.3440.106,,2018-09-04 00:25:16,2018-09-04 00:25:16,"0,619s",PASSED
waitForPageLoad,Chrome 68.0.3440.106,,2018-09-04 00:25:16,2018-09-04 00:25:16,"0,033s",PASSED
click,Chrome 68.0.3440.106,,2018-09-04 00:25:16,2018-09-04 00:25:17,"0,492s",PASSED
delay,Chrome 68.0.3440.106,,2018-09-04 00:25:17,2018-09-04 00:25:22,"5,139s",PASSED
click,Chrome 68.0.3440.106,,2018-09-04 00:25:22,2018-09-04 00:25:24,"2,421s",FAILED
Start tear down : TDIfFailed,Chrome 68.0.3440.106,,2018-09-04 00:25:24,2018-09-04 00:25:25,"0,283s",PASSED
