Suite/Test/Step Name,Browser,Description,Start time,End time,Duration,Status
TestDeclarationSinistre,Chrome 68.0.3440.106,,2018-08-28 21:53:01,2018-08-28 21:53:13,"11,859s",FAILED
,,,,,,
Test Cases/TC_Sinistre/Declaration,Chrome 68.0.3440.106,,2018-08-28 21:53:02,2018-08-28 21:53:12,"10,373s",FAILED
openBrowser,Chrome 68.0.3440.106,,2018-08-28 21:53:03,2018-08-28 21:53:08,"5,603s",PASSED
maximizeWindow,Chrome 68.0.3440.106,,2018-08-28 21:53:08,2018-08-28 21:53:09,"1,252s",PASSED
navigateToUrl,Chrome 68.0.3440.106,,2018-08-28 21:53:09,2018-08-28 21:53:11,"1,995s",PASSED
waitForPageLoad,Chrome 68.0.3440.106,,2018-08-28 21:53:11,2018-08-28 21:53:12,"0,110s",PASSED
setText,Chrome 68.0.3440.106,,2018-08-28 21:53:12,2018-08-28 21:53:12,"0,335s",FAILED
Start tear down : TDIfFailed,Chrome 68.0.3440.106,,2018-08-28 21:53:12,2018-08-28 21:53:12,"0,310s",PASSED
